%YAML 1.1
%TAG !u! tag:unity3d.com,2011:
--- !u!1001 &100100000
Prefab:
  m_ObjectHideFlags: 1
  serializedVersion: 2
  m_Modification:
    m_TransformParent: {fileID: 0}
    m_Modifications: []
    m_RemovedComponents: []
  m_SourcePrefab: {fileID: 0}
  m_RootGameObject: {fileID: 1505638531260040}
  m_IsPrefabAsset: 1
--- !u!1 &1015978340445656
GameObject:
  m_ObjectHideFlags: 0
  m_CorrespondingSourceObject: {fileID: 0}
  m_PrefabInternal: {fileID: 100100000}
  serializedVersion: 6
  m_Component:
  - component: {fileID: 4069821794300618}
  - component: {fileID: 8195094280678189882}
  - component: {fileID: 3664157346255217630}
  m_Layer: 31
  m_Name: Layer1
  m_TagString: Untagged
  m_Icon: {fileID: 0}
  m_NavMeshLayer: 0
  m_StaticEditorFlags: 0
  m_IsActive: 1
--- !u!1 &1505638531260040
GameObject:
  m_ObjectHideFlags: 0
  m_CorrespondingSourceObject: {fileID: 0}
  m_PrefabInternal: {fileID: 100100000}
  serializedVersion: 6
  m_Component:
  - component: {fileID: 4277846955796062}
  - component: {fileID: 2569400266096710566}
  m_Layer: 31
  m_Name: 8-Bit-Area
  m_TagString: Untagged
  m_Icon: {fileID: 0}
  m_NavMeshLayer: 0
  m_StaticEditorFlags: 0
  m_IsActive: 1
--- !u!4 &4069821794300618
Transform:
  m_ObjectHideFlags: 1
  m_CorrespondingSourceObject: {fileID: 0}
  m_PrefabInternal: {fileID: 100100000}
  m_GameObject: {fileID: 1015978340445656}
  m_LocalRotation: {x: -0, y: -0, z: -0, w: 1}
  m_LocalPosition: {x: 0, y: 0, z: 0}
  m_LocalScale: {x: 1, y: 1, z: 1}
  m_Children: []
  m_Father: {fileID: 4277846955796062}
  m_RootOrder: 0
  m_LocalEulerAnglesHint: {x: 0, y: 0, z: 0}
--- !u!4 &4277846955796062
Transform:
  m_ObjectHideFlags: 1
  m_CorrespondingSourceObject: {fileID: 0}
  m_PrefabInternal: {fileID: 100100000}
  m_GameObject: {fileID: 1505638531260040}
  m_LocalRotation: {x: 0, y: 0, z: 0, w: 1}
  m_LocalPosition: {x: 0, y: 0, z: 0}
  m_LocalScale: {x: 1, y: 1, z: 1}
  m_Children:
  - {fileID: 4069821794300618}
  m_Father: {fileID: 0}
  m_RootOrder: 0
  m_LocalEulerAnglesHint: {x: 0, y: 0, z: 0}
--- !u!114 &114735097477519796
MonoBehaviour:
  m_ObjectHideFlags: 0
  m_CorrespondingSourceObject: {fileID: 0}
  m_PrefabInternal: {fileID: 0}
  m_GameObject: {fileID: 0}
  m_Enabled: 1
  m_EditorHideFlags: 1
  m_Script: {fileID: 12395, guid: 0000000000000000e000000000000000, type: 0}
  m_Name: Palette Settings
  m_EditorClassIdentifier: 
  cellSizing: 0
--- !u!156049354 &2569400266096710566
Grid:
  m_ObjectHideFlags: 1
  m_CorrespondingSourceObject: {fileID: 0}
  m_PrefabInternal: {fileID: 100100000}
  m_GameObject: {fileID: 1505638531260040}
  m_Enabled: 1
  m_CellSize: {x: 0.2, y: 0.28, z: 0}
  m_CellGap: {x: 0, y: 0, z: 0}
  m_CellLayout: 0
  m_CellSwizzle: 0
--- !u!483693784 &3664157346255217630
TilemapRenderer:
  m_ObjectHideFlags: 1
  m_CorrespondingSourceObject: {fileID: 0}
  m_PrefabInternal: {fileID: 100100000}
  m_GameObject: {fileID: 1015978340445656}
  m_Enabled: 0
  m_CastShadows: 0
  m_ReceiveShadows: 0
  m_DynamicOccludee: 0
  m_MotionVectors: 1
  m_LightProbeUsage: 0
  m_ReflectionProbeUsage: 0
  m_RenderingLayerMask: 4294967295
  m_Materials:
  - {fileID: 10754, guid: 0000000000000000f000000000000000, type: 0}
  m_StaticBatchInfo:
    firstSubMesh: 0
    subMeshCount: 0
  m_StaticBatchRoot: {fileID: 0}
  m_ProbeAnchor: {fileID: 0}
  m_LightProbeVolumeOverride: {fileID: 0}
  m_ScaleInLightmap: 1
  m_PreserveUVs: 0
  m_IgnoreNormalsForChartDetection: 0
  m_ImportantGI: 0
  m_StitchLightmapSeams: 0
  m_SelectedEditorRenderState: 0
  m_MinimumChartSize: 4
  m_AutoUVMaxDistance: 0.5
  m_AutoUVMaxAngle: 89
  m_LightmapParameters: {fileID: 0}
  m_SortingLayerID: 0
  m_SortingLayer: 0
  m_SortingOrder: 0
  m_ChunkSize: {x: 32, y: 32, z: 32}
  m_ChunkCullingBounds: {x: 1.0799999, y: 0, z: 0}
  m_MaxChunkCount: 16
  m_MaxFrameAge: 16
  m_SortOrder: 0
  m_DetectChunkCullingBounds: 0
  m_MaskInteraction: 0
--- !u!1839735485 &8195094280678189882
Tilemap:
  m_ObjectHideFlags: 1
  m_CorrespondingSourceObject: {fileID: 0}
  m_PrefabInternal: {fileID: 100100000}
  m_GameObject: {fileID: 1015978340445656}
  m_Enabled: 1
  m_Tiles:
  - first: {x: -3, y: -6, z: 0}
    second:
      m_TileIndex: 0
      m_TileSpriteIndex: 0
      m_TileMatrixIndex: 0
      m_TileColorIndex: 0
      m_ObjectToInstantiate: {fileID: 0}
      m_TileFlags: 1
      m_ColliderType: 1
  - first: {x: 13, y: -6, z: 0}
    second:
      m_TileIndex: 6
      m_TileSpriteIndex: 6
      m_TileMatrixIndex: 0
      m_TileColorIndex: 0
      m_ObjectToInstantiate: {fileID: 0}
      m_TileFlags: 1
      m_ColliderType: 1
  - first: {x: 19, y: -4, z: 0}
    second:
      m_TileIndex: 2
      m_TileSpriteIndex: 2
      m_TileMatrixIndex: 0
      m_TileColorIndex: 1
      m_ObjectToInstantiate: {fileID: 0}
      m_TileFlags: 3
      m_ColliderType: 1
  - first: {x: -12, y: -3, z: 0}
    second:
      m_TileIndex: 10
      m_TileSpriteIndex: 10
      m_TileMatrixIndex: 0
      m_TileColorIndex: 0
      m_ObjectToInstantiate: {fileID: 0}
      m_TileFlags: 1
      m_ColliderType: 1
  - first: {x: -5, y: -3, z: 0}
    second:
      m_TileIndex: 11
      m_TileSpriteIndex: 11
      m_TileMatrixIndex: 0
      m_TileColorIndex: 0
      m_ObjectToInstantiate: {fileID: 0}
      m_TileFlags: 1
      m_ColliderType: 1
  - first: {x: 8, y: -3, z: 0}
    second:
      m_TileIndex: 7
      m_TileSpriteIndex: 7
      m_TileMatrixIndex: 0
      m_TileColorIndex: 0
      m_ObjectToInstantiate: {fileID: 0}
      m_TileFlags: 1
      m_ColliderType: 1
  - first: {x: 10, y: -3, z: 0}
    second:
      m_TileIndex: 5
      m_TileSpriteIndex: 4
      m_TileMatrixIndex: 0
      m_TileColorIndex: 0
      m_ObjectToInstantiate: {fileID: 0}
      m_TileFlags: 1
      m_ColliderType: 1
  - first: {x: 12, y: -3, z: 0}
    second:
      m_TileIndex: 8
      m_TileSpriteIndex: 9
      m_TileMatrixIndex: 0
      m_TileColorIndex: 0
      m_ObjectToInstantiate: {fileID: 0}
      m_TileFlags: 1
      m_ColliderType: 1
  - first: {x: 14, y: -3, z: 0}
    second:
      m_TileIndex: 9
      m_TileSpriteIndex: 8
      m_TileMatrixIndex: 0
      m_TileColorIndex: 0
      m_ObjectToInstantiate: {fileID: 0}
      m_TileFlags: 1
      m_ColliderType: 1
  - first: {x: 5, y: -1, z: 0}
    second:
      m_TileIndex: 4
      m_TileSpriteIndex: 5
      m_TileMatrixIndex: 0
      m_TileColorIndex: 0
      m_ObjectToInstantiate: {fileID: 0}
      m_TileFlags: 1
      m_ColliderType: 1
  - first: {x: -11, y: 1, z: 0}
    second:
      m_TileIndex: 3
      m_TileSpriteIndex: 1
      m_TileMatrixIndex: 0
      m_TileColorIndex: 0
      m_ObjectToInstantiate: {fileID: 0}
      m_TileFlags: 1
      m_ColliderType: 1
  - first: {x: 8, y: 1, z: 0}
    second:
      m_TileIndex: 1
      m_TileSpriteIndex: 3
      m_TileMatrixIndex: 0
      m_TileColorIndex: 0
      m_ObjectToInstantiate: {fileID: 0}
      m_TileFlags: 1
      m_ColliderType: 1
  - first: {x: 22, y: 1, z: 0}
    second:
      m_TileIndex: 0
      m_TileSpriteIndex: 0
      m_TileMatrixIndex: 0
      m_TileColorIndex: 0
      m_ObjectToInstantiate: {fileID: 0}
      m_TileFlags: 1
      m_ColliderType: 1
  m_AnimatedTiles: {}
  m_TileAssetArray:
  - m_RefCount: 2
    m_Data: {fileID: 11400000, guid: 4b241204882b10b4bafdf155e20fbc43, type: 2}
  - m_RefCount: 1
    m_Data: {fileID: 11400000, guid: 037959bf9d5fdb647a6a10ccf3fb77fb, type: 2}
  - m_RefCount: 1
    m_Data: {fileID: 0}
  - m_RefCount: 1
    m_Data: {fileID: 11400000, guid: aeb4d725eb134e640bc144f3fb41dda7, type: 2}
  - m_RefCount: 1
    m_Data: {fileID: 11400000, guid: d8866613bc1ce1a45812a3ee901ce901, type: 2}
  - m_RefCount: 1
    m_Data: {fileID: 11400000, guid: 710a0c12ca55cb24a969faac91749d57, type: 2}
  - m_RefCount: 1
    m_Data: {fileID: 11400000, guid: b9b560463ff05b240b13cd4fdbc0638b, type: 2}
  - m_RefCount: 1
    m_Data: {fileID: 11400000, guid: e4f86b7e6bfe7f045a3f180274af2773, type: 2}
  - m_RefCount: 1
    m_Data: {fileID: 11400000, guid: c49e488d6d69e154cb50702346652490, type: 2}
  - m_RefCount: 1
    m_Data: {fileID: 11400000, guid: 459db44b270662049a9f4048a17e4ed9, type: 2}
  - m_RefCount: 1
    m_Data: {fileID: 11400000, guid: e0c17dc64bd42bc46b537cbda4d9ff20, type: 2}
  - m_RefCount: 1
    m_Data: {fileID: 11400000, guid: b4a47dc561651a34a88fc7a98397221f, type: 2}
  m_TileSpriteArray:
  - m_RefCount: 2
    m_Data: {fileID: 21300000, guid: 7e284552364bc9044ba7f87f46c179ce, type: 3}
  - m_RefCount: 1
    m_Data: {fileID: 21300006, guid: 7e284552364bc9044ba7f87f46c179ce, type: 3}
  - m_RefCount: 1
    m_Data: {fileID: 0}
  - m_RefCount: 1
    m_Data: {fileID: 21300002, guid: 7e284552364bc9044ba7f87f46c179ce, type: 3}
  - m_RefCount: 1
    m_Data: {fileID: 21300010, guid: 7e284552364bc9044ba7f87f46c179ce, type: 3}
  - m_RefCount: 1
    m_Data: {fileID: 21300008, guid: 7e284552364bc9044ba7f87f46c179ce, type: 3}
  - m_RefCount: 1
    m_Data: {fileID: 21300012, guid: 7e284552364bc9044ba7f87f46c179ce, type: 3}
  - m_RefCount: 1
    m_Data: {fileID: 21300014, guid: 7e284552364bc9044ba7f87f46c179ce, type: 3}
  - m_RefCount: 1
    m_Data: {fileID: 21300018, guid: 7e284552364bc9044ba7f87f46c179ce, type: 3}
  - m_RefCount: 1
    m_Data: {fileID: 21300016, guid: 7e284552364bc9044ba7f87f46c179ce, type: 3}
  - m_RefCount: 1
    m_Data: {fileID: 21300030, guid: 7e284552364bc9044ba7f87f46c179ce, type: 3}
  - m_RefCount: 1
    m_Data: {fileID: 21300032, guid: 7e284552364bc9044ba7f87f46c179ce, type: 3}
  m_TileMatrixArray:
  - m_RefCount: 13
    m_Data:
      e00: 1
      e01: 0
      e02: 0
      e03: 0
      e10: 0
      e11: 1
      e12: 0
      e13: 0
      e20: 0
      e21: 0
      e22: 1
      e23: 0
      e30: 0
      e31: 0
      e32: 0
      e33: 1
  m_TileColorArray:
  - m_RefCount: 12
    m_Data: {r: 1, g: 1, b: 1, a: 1}
  - m_RefCount: 1
    m_Data: {r: 0.8116617, g: 0.36940858, b: 0.40441513, a: 1}
  m_AnimationFrameRate: 1
  m_Color: {r: 1, g: 1, b: 1, a: 1}
  m_Origin: {x: -12, y: -6, z: 0}
  m_Size: {x: 35, y: 8, z: 1}
  m_TileAnchor: {x: 0.5, y: 0.5, z: 0}
  m_TileOrientation: 0
  m_TileOrientationMatrix:
    e00: 1
    e01: 0
    e02: 0
    e03: 0
    e10: 0
    e11: 1
    e12: 0
    e13: 0
    e20: 0
    e21: 0
    e22: 1
    e23: 0
    e30: 0
    e31: 0
    e32: 0
    e33: 1
